SimpletronVP/sim_out.vcd
$date
     Sep 12, 2023       06:12:10
$end

$version
 SystemC 2.3.4-Accellera --- Aug  1 2023 07:55:54
$end

$timescale
     1 ps
$end

$scope module SystemC $end
$scope module simpletron $end
$var wire   16  aaaap  accumulator [15:0]  $end
$var wire   32  aaaaq  state [31:0]  $end
$var wire   16  aaaar  opcode [15:0]  $end
$var wire   16  aaaas  instruction_pointer [15:0]  $end
$upscope $end
$scope module spi $end
$var wire    1  aaaav  prescalar_ce       $end
$var wire    1  aaaaw  shifter_ce       $end
$scope module prescalar $end
$var wire    1  aaabj  sclk       $end
$var wire   16  aaabk  prescalar [15:0]  $end
$upscope $end
$scope module shifter $end
$var wire   16  aaaax  shift_reg [15:0]  $end
$var wire   16  aaaay  shift_counter [15:0]  $end
$var wire    1  aaaaz  _miso       $end
$var wire    1  aaabe  mosi       $end
$var wire    1  aaabf  miso       $end
$var wire   16  aaabg  wshift [15:0]  $end
$var wire    1  aaabh  sclk       $end
$var wire    1  aaabi  busy       $end
$upscope $end
$upscope $end
$scope module spi_device $end
$var wire   16  aaaba  shift_reg [15:0]  $end
$var wire    1  aaabb  _mosi       $end
$var wire    1  aaabc  mosi       $end
$var wire    1  aaabd  miso       $end
$upscope $end
$scope module sys $end
$var wire    1  aaaaa  clock       $end
$var wire   16  aaaab  address [15:0]  $end
$var wire   16  aaaac  data [15:0]  $end
$var wire    1  aaaad  ram_we       $end
$var wire    1  aaaae  rom_ce       $end
$var wire    1  aaaaf  ram_ce       $end
$var wire   16  aaaag  gpio_output [15:0]  $end
$var wire    1  aaaah  gpio_ce       $end
$var wire    1  aaaai  timer_ce       $end
$var wire    1  aaaaj  timer_tick       $end
$var wire    1  aaaak  pwm_out       $end
$var wire    1  aaaal  miso       $end
$var wire    1  aaaam  mosi       $end
$var wire    1  aaaan  ss       $end
$var wire    1  aaaao  sclk       $end
$upscope $end
$scope module timer $end
$var wire   16  aaaat  reg_countval [15:0]  $end
$var wire   16  aaaau  reg_status [15:0]  $end
$upscope $end
$upscope $end
$enddefinitions  $end

$comment
All initial values are dumped below at time 0 sec = 0 timescale units.
$end

$dumpvars
0aaaaa
b0 aaaab
b0 aaaac
0aaaad
1aaaae
0aaaaf
b0 aaaag
0aaaah
0aaaai
0aaaaj
0aaaak
0aaaal
0aaaam
0aaaan
1aaaao
b0 aaaap
b0 aaaaq
b0 aaaar
b0 aaaas
b0 aaaat
b0 aaaau
0aaaav
0aaaaw
b0 aaaax
b0 aaaay
0aaaaz
b1000000000000010 aaaba
0aaabb
0aaabc
0aaabd
0aaabe
0aaabf
b0 aaabg
1aaabh
0aaabi
1aaabj
b0 aaabk
$end

#10000000
1aaaaa
b1 aaaas

#15000000
0aaaaa
b1010010011001 aaaac

#20000000
1aaaaa
b1 aaaar

#25000000
0aaaaa

#30000000
1aaaaa
b10010011001 aaaab
b1010 aaaac
1aaaad
0aaaae
1aaaaf

#35000000
0aaaaa

#40000000
1aaaaa
b1 aaaab
0aaaad
1aaaae
0aaaaf
b10 aaaas

#45000000
0aaaaa
b1010010011000 aaaac

#50000000
1aaaaa

#55000000
0aaaaa

#60000000
1aaaaa
b10010011000 aaaab
b10 aaaac
1aaaad
0aaaae
1aaaaf

#65000000
0aaaaa

#70000000
1aaaaa
b10 aaaab
0aaaad
1aaaae
0aaaaf
b11 aaaas

#75000000
0aaaaa
b1010010010111 aaaac

#80000000
1aaaaa

#85000000
0aaaaa

#90000000
1aaaaa
b10010010111 aaaab
b111 aaaac
1aaaad
0aaaae
1aaaaf

#95000000
0aaaaa

#100000000
1aaaaa
b11 aaaab
0aaaad
1aaaae
0aaaaf
b100 aaaas

#105000000
0aaaaa
b1010010010110 aaaac

#110000000
1aaaaa

#115000000
0aaaaa

#120000000
1aaaaa
b10010010110 aaaab
b1 aaaac
1aaaad
0aaaae
1aaaaf

#125000000
0aaaaa

#130000000
1aaaaa
b100 aaaab
0aaaad
1aaaae
0aaaaf
b101 aaaas

#135000000
0aaaaa
b11010010011001 aaaac

#140000000
1aaaaa
b10010011001 aaaab
0aaaae
1aaaaf
b11 aaaar

#145000000
0aaaaa
b1010 aaaac

#150000000
1aaaaa
b1010 aaaap

#155000000
0aaaaa

#160000000
1aaaaa
b101 aaaab
1aaaae
0aaaaf
b110 aaaas

#165000000
0aaaaa
b100111100010010 aaaac

#170000000
1aaaaa
b100 aaaar

#175000000
0aaaaa

#180000000
1aaaaa
b111100010010 aaaab
b1010 aaaac
1aaaad
0aaaae
1aaaai

#185000000
0aaaaa

#190000000
1aaaaa
b110 aaaab
0aaaad
1aaaae
0aaaai
b111 aaaas

#195000000
0aaaaa
b11010010010111 aaaac

#200000000
1aaaaa
b10010010111 aaaab
0aaaae
1aaaaf
b11 aaaar

#205000000
0aaaaa
b111 aaaac

#210000000
1aaaaa
b111 aaaap

#215000000
0aaaaa

#220000000
1aaaaa
b111 aaaab
1aaaae
0aaaaf
b1000 aaaas

#225000000
0aaaaa
b100111100100001 aaaac

#230000000
1aaaaa
b100 aaaar

#235000000
0aaaaa

#240000000
1aaaaa
b111100100001 aaaab
b111 aaaac
1aaaad
0aaaae

#245000000
0aaaaa

#250000000
1aaaaa
b1000 aaaab
0aaaad
1aaaae
b1001 aaaas

#255000000
0aaaaa
b11010010010110 aaaac

#260000000
1aaaaa
b10010010110 aaaab
0aaaae
1aaaaf
b11 aaaar

#265000000
0aaaaa
b1 aaaac

#270000000
1aaaaa
b1 aaaap

#275000000
0aaaaa

#280000000
1aaaaa
b1001 aaaab
1aaaae
0aaaaf
b1010 aaaas

#285000000
0aaaaa
b100111100100000 aaaac

#290000000
1aaaaa
b100 aaaar

#295000000
0aaaaa

#300000000
1aaaaa
b111100100000 aaaab
b1 aaaac
1aaaad
0aaaae

#305000000
0aaaaa
1aaaak

#310000000
1aaaaa
b1010 aaaab
0aaaad
1aaaae
b1011 aaaas

#315000000
0aaaaa
b11010010011000 aaaac

#320000000
1aaaaa
b10010011000 aaaab
0aaaae
1aaaaf
b11 aaaar

#325000000
0aaaaa
b10 aaaac

#330000000
1aaaaa
b10 aaaap

#335000000
0aaaaa

#340000000
1aaaaa
b1011 aaaab
1aaaae
0aaaaf
b1100 aaaas

#345000000
0aaaaa
b100111100010000 aaaac

#350000000
1aaaaa
b100 aaaar

#355000000
0aaaaa

#360000000
1aaaaa
b111100010000 aaaab
b10 aaaac
1aaaad
0aaaae
1aaaai

#365000000
0aaaaa
b1 aaaat
b10 aaaau

#370000000
1aaaaa
b1100 aaaab
0aaaad
1aaaae
0aaaai
b1101 aaaas

#375000000
0aaaaa
b1001000000001100 aaaac
b10 aaaat

#380000000
1aaaaa
b1001 aaaar

#385000000
0aaaaa
b11 aaaat

#390000000
1aaaaa
b1100 aaaas

#395000000
0aaaaa
b100 aaaat

#400000000
1aaaaa
b1101 aaaas

#405000000
0aaaaa
b101 aaaat

#410000000
1aaaaa

#415000000
0aaaaa
b110 aaaat

#420000000
1aaaaa
b1100 aaaas

#425000000
0aaaaa
b111 aaaat

#430000000
1aaaaa
b1101 aaaas

#435000000
0aaaaa
0aaaak
b1000 aaaat

#440000000
1aaaaa

#445000000
0aaaaa
b1001 aaaat

#450000000
1aaaaa
b1100 aaaas

#455000000
0aaaaa
1aaaaj
b0 aaaat

#460000000
1aaaaa
b1101 aaaas

#465000000
0aaaaa
0aaaaj
1aaaak
b1 aaaat

#470000000
1aaaaa

#475000000
0aaaaa
b10 aaaat

#480000000
1aaaaa
b1100 aaaas

#485000000
0aaaaa
b11 aaaat

#490000000
1aaaaa
b1101 aaaas

#495000000
0aaaaa
b100 aaaat

#500000000
1aaaaa

#505000000
0aaaaa
b101 aaaat

#510000000
1aaaaa
b1100 aaaas

#515000000
0aaaaa
b110 aaaat

#520000000
1aaaaa
b1101 aaaas

#525000000
0aaaaa
b111 aaaat

#530000000
1aaaaa

#535000000
0aaaaa
0aaaak
b1000 aaaat

#540000000
1aaaaa
b1100 aaaas

#545000000
0aaaaa
b1001 aaaat

#550000000
1aaaaa
b1101 aaaas

#555000000
0aaaaa
1aaaaj
b0 aaaat

#560000000
1aaaaa

#565000000
0aaaaa
0aaaaj
1aaaak
b1 aaaat

#570000000
1aaaaa
b1100 aaaas

#575000000
0aaaaa
b10 aaaat

#580000000
1aaaaa
b1101 aaaas

#585000000
0aaaaa
b11 aaaat

#590000000
1aaaaa

#595000000
0aaaaa
b100 aaaat

#600000000
1aaaaa
b1100 aaaas

#605000000
0aaaaa
b101 aaaat

#610000000
1aaaaa
b1101 aaaas

#615000000
0aaaaa
b110 aaaat

#620000000
1aaaaa

#625000000
0aaaaa
b111 aaaat

#630000000
1aaaaa
b1100 aaaas

#635000000
0aaaaa
0aaaak
b1000 aaaat

#640000000
1aaaaa
b1101 aaaas

#645000000
0aaaaa
b1001 aaaat

#650000000
1aaaaa

#655000000
0aaaaa
1aaaaj
b0 aaaat

#660000000
1aaaaa
b1100 aaaas

#665000000
0aaaaa
0aaaaj
1aaaak
b1 aaaat

#670000000
1aaaaa
b1101 aaaas

#675000000
0aaaaa
b10 aaaat

#680000000
1aaaaa

#685000000
0aaaaa
b11 aaaat

#690000000
1aaaaa
b1100 aaaas

#695000000
0aaaaa
b100 aaaat

#700000000
1aaaaa
b1101 aaaas

#705000000
0aaaaa
b101 aaaat

#710000000
1aaaaa

#715000000
0aaaaa
b110 aaaat

#720000000
1aaaaa
b1100 aaaas

#725000000
0aaaaa
b111 aaaat

#730000000
1aaaaa
b1101 aaaas

#735000000
0aaaaa
0aaaak
b1000 aaaat

#740000000
1aaaaa

#745000000
0aaaaa
b1001 aaaat

#750000000
1aaaaa
b1100 aaaas

#755000000
0aaaaa
1aaaaj
b0 aaaat

#760000000
1aaaaa
b1101 aaaas

#765000000
0aaaaa
0aaaaj
1aaaak
b1 aaaat

#770000000
1aaaaa

#775000000
0aaaaa
b10 aaaat

#780000000
1aaaaa
b1100 aaaas

#785000000
0aaaaa
b11 aaaat

#790000000
1aaaaa
b1101 aaaas

#795000000
0aaaaa
b100 aaaat

#800000000
1aaaaa

#805000000
0aaaaa
b101 aaaat

#810000000
1aaaaa
b1100 aaaas

#815000000
0aaaaa
b110 aaaat

#820000000
1aaaaa
b1101 aaaas

#825000000
0aaaaa
b111 aaaat

#830000000
1aaaaa

#835000000
0aaaaa
0aaaak
b1000 aaaat

#840000000
1aaaaa
b1100 aaaas

#845000000
0aaaaa
b1001 aaaat

#850000000
1aaaaa
b1101 aaaas

#855000000
0aaaaa
1aaaaj
b0 aaaat

#860000000
1aaaaa

#865000000
0aaaaa
0aaaaj
1aaaak
b1 aaaat

#870000000
1aaaaa
b1100 aaaas

#875000000
0aaaaa
b10 aaaat

#880000000
1aaaaa
b1101 aaaas

#885000000
0aaaaa
b11 aaaat

#890000000
1aaaaa

#895000000
0aaaaa
b100 aaaat

#900000000
1aaaaa
b1100 aaaas

#905000000
0aaaaa
b101 aaaat

#910000000
1aaaaa
b1101 aaaas

#915000000
0aaaaa
b110 aaaat

#920000000
1aaaaa

#925000000
0aaaaa
b111 aaaat

#930000000
1aaaaa
b1100 aaaas

#935000000
0aaaaa
0aaaak
b1000 aaaat

#940000000
1aaaaa
b1101 aaaas

#945000000
0aaaaa
b1001 aaaat

#950000000
1aaaaa

#955000000
0aaaaa
1aaaaj
b0 aaaat

#960000000
1aaaaa
b1100 aaaas

#965000000
0aaaaa
0aaaaj
1aaaak
b1 aaaat

#970000000
1aaaaa
b1101 aaaas

#975000000
0aaaaa
b10 aaaat

#980000000
1aaaaa

#985000000
0aaaaa
b11 aaaat

#990000000
1aaaaa
b1100 aaaas

#995000000
0aaaaa
b100 aaaat

#1000000000
1aaaaa
b1101 aaaas

#1005000000
0aaaaa
b101 aaaat

#1010000000
1aaaaa

#1015000000
0aaaaa
b110 aaaat

#1020000000
1aaaaa
b1100 aaaas

#1025000000
0aaaaa
b111 aaaat

#1030000000
1aaaaa
b1101 aaaas

#1035000000
0aaaaa
0aaaak
b1000 aaaat

#1040000000
1aaaaa

#1045000000
0aaaaa
b1001 aaaat

#1050000000
1aaaaa
b1100 aaaas

#1055000000
0aaaaa
1aaaaj
b0 aaaat

#1060000000
1aaaaa
b1101 aaaas

#1065000000
0aaaaa
0aaaaj
1aaaak
b1 aaaat

#1070000000
1aaaaa

#1075000000
0aaaaa
b10 aaaat

#1080000000
1aaaaa
b1100 aaaas

#1085000000
0aaaaa
b11 aaaat

#1090000000
1aaaaa
b1101 aaaas

#1095000000
0aaaaa
b100 aaaat

#1100000000
1aaaaa

#1105000000
0aaaaa
b101 aaaat

#1110000000
1aaaaa
b1100 aaaas

#1115000000
0aaaaa
b110 aaaat

#1120000000
1aaaaa
b1101 aaaas

#1125000000
0aaaaa
b111 aaaat

#1130000000
1aaaaa

#1135000000
0aaaaa
0aaaak
b1000 aaaat

#1140000000
1aaaaa
b1100 aaaas

#1145000000
0aaaaa
b1001 aaaat

#1150000000
1aaaaa
b1101 aaaas

#1155000000
0aaaaa
1aaaaj
b0 aaaat

#1160000000
1aaaaa

#1165000000
0aaaaa
0aaaaj
1aaaak
b1 aaaat

#1170000000
1aaaaa
b1100 aaaas

#1175000000
0aaaaa
b10 aaaat

#1180000000
1aaaaa
b1101 aaaas

#1185000000
0aaaaa
b11 aaaat

#1190000000
1aaaaa

#1195000000
0aaaaa
b100 aaaat

#1200000000
1aaaaa
b1100 aaaas

#1205000000
0aaaaa
b101 aaaat

#1210000000
1aaaaa
b1101 aaaas

#1215000000
0aaaaa
b110 aaaat

#1220000000
1aaaaa

#1225000000
0aaaaa
b111 aaaat

#1230000000
1aaaaa
b1100 aaaas

#1235000000
0aaaaa
0aaaak
b1000 aaaat

#1240000000
1aaaaa
b1101 aaaas

#1245000000
0aaaaa
b1001 aaaat

#1250000000
1aaaaa

#1255000000
0aaaaa
1aaaaj
b0 aaaat

#1260000000
1aaaaa
b1100 aaaas

#1265000000
0aaaaa
0aaaaj
1aaaak
b1 aaaat

#1270000000
1aaaaa
b1101 aaaas

#1275000000
0aaaaa
b10 aaaat

#1280000000
1aaaaa

#1285000000
0aaaaa
b11 aaaat

#1290000000
1aaaaa
b1100 aaaas

#1295000000
0aaaaa
b100 aaaat

#1300000000
1aaaaa
b1101 aaaas

#1305000000
0aaaaa
b101 aaaat

#1310000000
1aaaaa

#1315000000
0aaaaa
b110 aaaat

#1320000000
1aaaaa
b1100 aaaas

#1325000000
0aaaaa
b111 aaaat

#1330000000
1aaaaa
b1101 aaaas

#1335000000
0aaaaa
0aaaak
b1000 aaaat

#1340000000
1aaaaa

#1345000000
0aaaaa
b1001 aaaat

#1350000000
1aaaaa
b1100 aaaas

#1355000000
0aaaaa
1aaaaj
b0 aaaat

#1360000000
1aaaaa
b1101 aaaas

#1365000000
0aaaaa
0aaaaj
1aaaak
b1 aaaat

#1370000000
1aaaaa

#1375000000
0aaaaa
b10 aaaat

#1380000000
1aaaaa
b1100 aaaas

#1385000000
0aaaaa
b11 aaaat

#1390000000
1aaaaa
b1101 aaaas

#1395000000
0aaaaa
b100 aaaat

#1400000000
1aaaaa

#1405000000
0aaaaa
b101 aaaat

#1410000000
1aaaaa
b1100 aaaas

#1415000000
0aaaaa
b110 aaaat

#1420000000
1aaaaa
b1101 aaaas

#1425000000
0aaaaa
b111 aaaat

#1430000000
1aaaaa

#1435000000
0aaaaa
0aaaak
b1000 aaaat

#1440000000
1aaaaa
b1100 aaaas

#1445000000
0aaaaa
b1001 aaaat

#1450000000
1aaaaa
b1101 aaaas

#1455000000
0aaaaa
1aaaaj
b0 aaaat

#1460000000
1aaaaa

#1465000000
0aaaaa
0aaaaj
1aaaak
b1 aaaat

#1470000000
1aaaaa
b1100 aaaas

#1475000000
0aaaaa
b10 aaaat

#1480000000
1aaaaa
b1101 aaaas

#1485000000
0aaaaa
b11 aaaat

#1490000000
1aaaaa

#1495000000
0aaaaa
b100 aaaat

#1500000000
1aaaaa
b1100 aaaas

#1505000000
0aaaaa
b101 aaaat

#1510000000
1aaaaa
b1101 aaaas

#1515000000
0aaaaa
b110 aaaat

#1520000000
1aaaaa

#1525000000
0aaaaa
b111 aaaat

#1530000000
1aaaaa
b1100 aaaas

#1535000000
0aaaaa
0aaaak
b1000 aaaat

#1540000000
1aaaaa
b1101 aaaas

#1545000000
0aaaaa
b1001 aaaat

#1550000000
1aaaaa

#1555000000
0aaaaa
1aaaaj
b0 aaaat

#1560000000
1aaaaa
b1100 aaaas

#1565000000
0aaaaa
0aaaaj
1aaaak
b1 aaaat

#1570000000
1aaaaa
b1101 aaaas

#1575000000
0aaaaa
b10 aaaat

#1580000000
1aaaaa

#1585000000
0aaaaa
b11 aaaat

#1590000000
1aaaaa
b1100 aaaas

#1595000000
0aaaaa
b100 aaaat

#1600000000
1aaaaa
b1101 aaaas

#1605000000
0aaaaa
b101 aaaat

#1610000000
1aaaaa

#1615000000
0aaaaa
b110 aaaat

#1620000000
1aaaaa
b1100 aaaas

#1625000000
0aaaaa
b111 aaaat

#1630000000
1aaaaa
b1101 aaaas

#1635000000
0aaaaa
0aaaak
b1000 aaaat

#1640000000
1aaaaa

#1645000000
0aaaaa
b1001 aaaat

#1650000000
1aaaaa
b1100 aaaas

#1655000000
0aaaaa
1aaaaj
b0 aaaat

#1660000000
1aaaaa
b1101 aaaas

#1665000000
0aaaaa
0aaaaj
1aaaak
b1 aaaat

#1670000000
1aaaaa

#1675000000
0aaaaa
b10 aaaat

#1680000000
1aaaaa
b1100 aaaas

#1685000000
0aaaaa
b11 aaaat

#1690000000
1aaaaa
b1101 aaaas

#1695000000
0aaaaa
b100 aaaat

#1700000000
1aaaaa

#1705000000
0aaaaa
b101 aaaat

#1710000000
1aaaaa
b1100 aaaas

#1715000000
0aaaaa
b110 aaaat

#1720000000
1aaaaa
b1101 aaaas

#1725000000
0aaaaa
b111 aaaat

#1730000000
1aaaaa

#1735000000
0aaaaa
0aaaak
b1000 aaaat

#1740000000
1aaaaa
b1100 aaaas

#1745000000
0aaaaa
b1001 aaaat

#1750000000
1aaaaa
b1101 aaaas

#1755000000
0aaaaa
1aaaaj
b0 aaaat

#1760000000
1aaaaa

#1765000000
0aaaaa
0aaaaj
1aaaak
b1 aaaat

#1770000000
1aaaaa
b1100 aaaas

#1775000000
0aaaaa
b10 aaaat

#1780000000
1aaaaa
b1101 aaaas

#1785000000
0aaaaa
b11 aaaat

#1790000000
1aaaaa

#1795000000
0aaaaa
b100 aaaat

#1800000000
1aaaaa
b1100 aaaas

#1805000000
0aaaaa
b101 aaaat

#1810000000
1aaaaa
b1101 aaaas

#1815000000
0aaaaa
b110 aaaat

#1820000000
1aaaaa

#1825000000
0aaaaa
b111 aaaat

#1830000000
1aaaaa
b1100 aaaas

#1835000000
0aaaaa
0aaaak
b1000 aaaat

#1840000000
1aaaaa
b1101 aaaas

#1845000000
0aaaaa
b1001 aaaat

#1850000000
1aaaaa

#1855000000
0aaaaa
1aaaaj
b0 aaaat

#1860000000
1aaaaa
b1100 aaaas

#1865000000
0aaaaa
0aaaaj
1aaaak
b1 aaaat

#1870000000
1aaaaa
b1101 aaaas

#1875000000
0aaaaa
b10 aaaat

#1880000000
1aaaaa

#1885000000
0aaaaa
b11 aaaat

#1890000000
1aaaaa
b1100 aaaas

#1895000000
0aaaaa
b100 aaaat

#1900000000
1aaaaa
b1101 aaaas

#1905000000
0aaaaa
b101 aaaat

#1910000000
1aaaaa

#1915000000
0aaaaa
b110 aaaat

#1920000000
1aaaaa
b1100 aaaas

#1925000000
0aaaaa
b111 aaaat

#1930000000
1aaaaa
b1101 aaaas

#1935000000
0aaaaa
0aaaak
b1000 aaaat

#1940000000
1aaaaa

#1945000000
0aaaaa
b1001 aaaat

#1950000000
1aaaaa
b1100 aaaas

#1955000000
0aaaaa
1aaaaj
b0 aaaat

#1960000000
1aaaaa
b1101 aaaas

#1965000000
0aaaaa
0aaaaj
1aaaak
b1 aaaat

#1970000000
1aaaaa

#1975000000
0aaaaa
b10 aaaat

#1980000000
1aaaaa
b1100 aaaas

#1985000000
0aaaaa
b11 aaaat

#1990000000
1aaaaa
b1101 aaaas

#1995000000
0aaaaa
b100 aaaat

