SimpletronVP/sim_out.vcd
$date
     Aug 03, 2023       06:40:56
$end

$version
 SystemC 2.3.4-Accellera --- Aug  1 2023 07:55:54
$end

$timescale
     1 ps
$end

$scope module SystemC $end
$var wire    1  aaaaa  clock       $end
$var wire   32  aaaab  address [31:0]  $end
$var wire   32  aaaac  data [31:0]  $end
$var wire    1  aaaad  ram_we       $end
$var wire   32  aaaae  accumulator_debug [31:0]  $end
$var wire    1  aaaaf  rom_ce       $end
$var wire    1  aaaag  ram_ce       $end
$upscope $end
$enddefinitions  $end

$comment
All initial values are dumped below at time 0 sec = 0 timescale units.
$end

$dumpvars
0aaaaa
b0 aaaab
b0 aaaac
0aaaad
b0 aaaae
1aaaaf
0aaaag
$end

#10000000
1aaaaa

#15000000
0aaaaa
b1010010011001 aaaac

#20000000
1aaaaa
b10010011001 aaaab
0aaaaf
1aaaag

#25000000
0aaaaa
b0 aaaac

#30000000
1aaaaa
b1 aaaac
1aaaad

#35000000
0aaaaa

#40000000
1aaaaa
b1 aaaab
0aaaad
1aaaaf
0aaaag

#45000000
0aaaaa
b1010010011000 aaaac

#50000000
1aaaaa
b10010011000 aaaab
0aaaaf
1aaaag

#55000000
0aaaaa
b0 aaaac

#60000000
1aaaaa
b10 aaaac
1aaaad

#65000000
0aaaaa

#70000000
1aaaaa
b10 aaaab
0aaaad
1aaaaf
0aaaag

#75000000
0aaaaa
b11010010011001 aaaac

#80000000
1aaaaa
b10010011001 aaaab
0aaaaf
1aaaag

#85000000
0aaaaa
b1 aaaac

#90000000
1aaaaa
b1 aaaae

#95000000
0aaaaa

#100000000
1aaaaa
b11 aaaab
1aaaaf
0aaaag

#105000000
0aaaaa
b110010010011000 aaaac

#110000000
1aaaaa
b10010011000 aaaab
0aaaaf
1aaaag

#115000000
0aaaaa
b10 aaaac

#120000000
1aaaaa
b11111111111111111111111111111111 aaaae

#125000000
0aaaaa

#130000000
1aaaaa
b100 aaaab
1aaaaf
0aaaag

#135000000
0aaaaa
b1010000000000111 aaaac

#140000000
1aaaaa
b111 aaaab

#145000000
0aaaaa
b10010010011000 aaaac

#150000000
1aaaaa

#155000000
0aaaaa

#160000000
1aaaaa

#165000000
0aaaaa

#170000000
1aaaaa
b10010011000 aaaab
0aaaaf
1aaaag

#175000000
0aaaaa
b10 aaaac

#180000000
1aaaaa

#185000000
0aaaaa

#190000000
1aaaaa
b1000 aaaab
1aaaaf
0aaaag

#195000000
0aaaaa
b1100001100000000 aaaac

#200000000
1aaaaa
b1100000000 aaaab

#205000000
0aaaaa
b0 aaaac

