SimpletronVP/sim_out.vcd
$date
     Aug 11, 2023       07:55:52
$end

$version
 SystemC 2.3.4-Accellera --- Aug  1 2023 07:55:54
$end

$timescale
     1 ps
$end

$scope module SystemC $end
$var wire    1  aaaal  miso       $end
$var wire    1  aaaam  mosi       $end
$var wire    1  aaaan  sclk       $end
$var wire    1  aaaao  ss       $end
$scope module simpletron $end
$var wire   16  aaaap  accumulator [15:0]  $end
$var wire   32  aaaaq  state [31:0]  $end
$var wire   16  aaaar  opcode [15:0]  $end
$var wire   16  aaaas  instruction_pointer [15:0]  $end
$upscope $end
$scope module sys $end
$var wire    1  aaaaa  clock       $end
$var wire   16  aaaab  address [15:0]  $end
$var wire   16  aaaac  data [15:0]  $end
$var wire    1  aaaad  ram_we       $end
$var wire    1  aaaae  rom_ce       $end
$var wire    1  aaaaf  ram_ce       $end
$var wire   16  aaaag  gpio_output [15:0]  $end
$var wire    1  aaaah  gpio_ce       $end
$var wire    1  aaaai  timer_ce       $end
$var wire    1  aaaaj  timer_tick       $end
$var wire    1  aaaak  pwm_out       $end
$upscope $end
$scope module timer $end
$var wire   16  aaaat  reg_countval [15:0]  $end
$var wire   16  aaaau  reg_status [15:0]  $end
$upscope $end
$upscope $end
$enddefinitions  $end

$comment
All initial values are dumped below at time 0 sec = 0 timescale units.
$end

$dumpvars
0aaaaa
b0 aaaab
b0 aaaac
0aaaad
1aaaae
0aaaaf
b0 aaaag
0aaaah
0aaaai
0aaaaj
0aaaak
0aaaal
0aaaam
0aaaan
0aaaao
b0 aaaap
b0 aaaaq
b0 aaaar
b0 aaaas
b0 aaaat
b0 aaaau
$end

#10000000
1aaaaa
b1 aaaas

#15000000
0aaaaa
b1010010011001 aaaac

#20000000
1aaaaa
b1 aaaar

#25000000
0aaaaa

#30000000
1aaaaa
b10010011001 aaaab
b1100100 aaaac
1aaaad
0aaaae
1aaaaf

#35000000
0aaaaa

#40000000
1aaaaa
b1 aaaab
0aaaad
1aaaae
0aaaaf
b10 aaaas

#45000000
0aaaaa
b1010010011000 aaaac

#50000000
1aaaaa

#55000000
0aaaaa

#60000000
1aaaaa
b10010011000 aaaab
b1 aaaac
1aaaad
0aaaae
1aaaaf

#65000000
0aaaaa

#70000000
1aaaaa
b10 aaaab
0aaaad
1aaaae
0aaaaf
b11 aaaas

#75000000
0aaaaa
b1010010010111 aaaac

#80000000
1aaaaa

#85000000
0aaaaa

#90000000
1aaaaa
b10010010111 aaaab
b1 aaaac
1aaaad
0aaaae
1aaaaf

#95000000
0aaaaa

#100000000
1aaaaa
b11 aaaab
0aaaad
1aaaae
0aaaaf
b100 aaaas

#105000000
0aaaaa
b11010010011001 aaaac

#110000000
1aaaaa
b10010011001 aaaab
0aaaae
1aaaaf
b11 aaaar

#115000000
0aaaaa
b1100100 aaaac

#120000000
1aaaaa
b1100100 aaaap

#125000000
0aaaaa

#130000000
1aaaaa
b100 aaaab
1aaaae
0aaaaf
b101 aaaas

#135000000
0aaaaa
b100111100110011 aaaac

#140000000
1aaaaa
b100 aaaar

#145000000
0aaaaa

#150000000
1aaaaa
b111100110011 aaaab
b1100100 aaaac
1aaaad
0aaaae

#155000000
0aaaaa

#160000000
1aaaaa
b101 aaaab
0aaaad
1aaaae
b110 aaaas

#165000000
0aaaaa
b11010010011000 aaaac

#170000000
1aaaaa
b10010011000 aaaab
0aaaae
1aaaaf
b11 aaaar

#175000000
0aaaaa
b1 aaaac

#180000000
1aaaaa
b1 aaaap

#185000000
0aaaaa

#190000000
1aaaaa
b110 aaaab
1aaaae
0aaaaf
b111 aaaas

#195000000
0aaaaa
b100111100110001 aaaac

#200000000
1aaaaa
b100 aaaar

#205000000
0aaaaa

#210000000
1aaaaa
b111100110001 aaaab
b1 aaaac
1aaaad
0aaaae

#215000000
0aaaaa

#220000000
1aaaaa
b111 aaaab
0aaaad
1aaaae
b1000 aaaas

#225000000
0aaaaa
b11010010010111 aaaac

#230000000
1aaaaa
b10010010111 aaaab
0aaaae
1aaaaf
b11 aaaar

#235000000
0aaaaa
b1 aaaac

#240000000
1aaaaa

#245000000
0aaaaa

#250000000
1aaaaa
b1000 aaaab
1aaaae
0aaaaf
b1001 aaaas

#255000000
0aaaaa
b100111100110010 aaaac

#260000000
1aaaaa
b100 aaaar

#265000000
0aaaaa

#270000000
1aaaaa
b111100110010 aaaab
b1 aaaac
1aaaad
0aaaae

#275000000
0aaaaa

#280000000
1aaaaa
b1001 aaaab
0aaaad
1aaaae
b1010 aaaas

#285000000
0aaaaa
b1001000000001001 aaaac

#290000000
1aaaaa
b1001 aaaar

#295000000
0aaaaa

#300000000
1aaaaa
b1001 aaaas

#305000000
0aaaaa

#310000000
1aaaaa
b1010 aaaas

#315000000
0aaaaa

#320000000
1aaaaa

#325000000
0aaaaa

#330000000
1aaaaa
b1001 aaaas

#335000000
0aaaaa

#340000000
1aaaaa
b1010 aaaas

#345000000
0aaaaa
1aaaam

#350000000
1aaaaa

#355000000
0aaaaa

#360000000
1aaaaa
b1001 aaaas

#365000000
0aaaaa
0aaaam

#370000000
1aaaaa
b1010 aaaas

#375000000
0aaaaa

#380000000
1aaaaa

#385000000
0aaaaa

#390000000
1aaaaa
b1001 aaaas

#395000000
0aaaaa

#400000000
1aaaaa
b1010 aaaas

#405000000
0aaaaa
1aaaam

#410000000
1aaaaa

#415000000
0aaaaa

#420000000
1aaaaa
b1001 aaaas

#425000000
0aaaaa

#430000000
1aaaaa
b1010 aaaas

#435000000
0aaaaa

#440000000
1aaaaa

#445000000
0aaaaa
0aaaam

#450000000
1aaaaa
b1001 aaaas

#455000000
0aaaaa

#460000000
1aaaaa
b1010 aaaas

#465000000
0aaaaa

#470000000
1aaaaa

#475000000
0aaaaa

#480000000
1aaaaa
b1001 aaaas

#485000000
0aaaaa

#490000000
1aaaaa
b1010 aaaas

#495000000
0aaaaa

#500000000
1aaaaa

#505000000
0aaaaa

#510000000
1aaaaa
b1001 aaaas

#515000000
0aaaaa

#520000000
1aaaaa
b1010 aaaas

#525000000
0aaaaa

#530000000
1aaaaa

#535000000
0aaaaa

#540000000
1aaaaa
b1001 aaaas

#545000000
0aaaaa

#550000000
1aaaaa
b1010 aaaas

#555000000
0aaaaa

#560000000
1aaaaa

#565000000
0aaaaa

#570000000
1aaaaa
b1001 aaaas

#575000000
0aaaaa

#580000000
1aaaaa
b1010 aaaas

#585000000
0aaaaa

#590000000
1aaaaa

#595000000
0aaaaa

#600000000
1aaaaa
b1001 aaaas

#605000000
0aaaaa

#610000000
1aaaaa
b1010 aaaas

#615000000
0aaaaa

#620000000
1aaaaa

#625000000
0aaaaa

#630000000
1aaaaa
b1001 aaaas

#635000000
0aaaaa

#640000000
1aaaaa
b1010 aaaas

#645000000
0aaaaa

#650000000
1aaaaa

#655000000
0aaaaa

#660000000
1aaaaa
b1001 aaaas

#665000000
0aaaaa

#670000000
1aaaaa
b1010 aaaas

#675000000
0aaaaa

#680000000
1aaaaa

#685000000
0aaaaa

#690000000
1aaaaa
b1001 aaaas

#695000000
0aaaaa

#700000000
1aaaaa
b1010 aaaas

#705000000
0aaaaa

#710000000
1aaaaa

#715000000
0aaaaa

#720000000
1aaaaa
b1001 aaaas

#725000000
0aaaaa

#730000000
1aaaaa
b1010 aaaas

#735000000
0aaaaa

#740000000
1aaaaa

#745000000
0aaaaa

#750000000
1aaaaa
b1001 aaaas

#755000000
0aaaaa

#760000000
1aaaaa
b1010 aaaas

#765000000
0aaaaa

#770000000
1aaaaa

#775000000
0aaaaa

#780000000
1aaaaa
b1001 aaaas

#785000000
0aaaaa

#790000000
1aaaaa
b1010 aaaas

#795000000
0aaaaa

#800000000
1aaaaa

#805000000
0aaaaa

#810000000
1aaaaa
b1001 aaaas

#815000000
0aaaaa

#820000000
1aaaaa
b1010 aaaas

#825000000
0aaaaa

#830000000
1aaaaa

#835000000
0aaaaa

#840000000
1aaaaa
b1001 aaaas

#845000000
0aaaaa

#850000000
1aaaaa
b1010 aaaas

#855000000
0aaaaa

#860000000
1aaaaa

#865000000
0aaaaa

#870000000
1aaaaa
b1001 aaaas

#875000000
0aaaaa

#880000000
1aaaaa
b1010 aaaas

#885000000
0aaaaa

#890000000
1aaaaa

#895000000
0aaaaa

#900000000
1aaaaa
b1001 aaaas

#905000000
0aaaaa

#910000000
1aaaaa
b1010 aaaas

#915000000
0aaaaa

#920000000
1aaaaa

#925000000
0aaaaa

#930000000
1aaaaa
b1001 aaaas

#935000000
0aaaaa

#940000000
1aaaaa
b1010 aaaas

#945000000
0aaaaa

#950000000
1aaaaa

#955000000
0aaaaa

#960000000
1aaaaa
b1001 aaaas

#965000000
0aaaaa

#970000000
1aaaaa
b1010 aaaas

#975000000
0aaaaa

#980000000
1aaaaa

#985000000
0aaaaa

#990000000
1aaaaa
b1001 aaaas

