SimpletronVP/sim_out.vcd
$date
     Aug 09, 2023       06:46:03
$end

$version
 SystemC 2.3.4-Accellera --- Aug  1 2023 07:55:54
$end

$timescale
     1 ps
$end

$scope module SystemC $end
$scope module simpletron $end
$var wire   16  aaaal  accumulator [15:0]  $end
$var wire   32  aaaam  state [31:0]  $end
$var wire   16  aaaan  opcode [15:0]  $end
$var wire   16  aaaao  instruction_pointer [15:0]  $end
$upscope $end
$scope module sys $end
$var wire    1  aaaaa  clock       $end
$var wire   16  aaaab  address [15:0]  $end
$var wire   16  aaaac  data [15:0]  $end
$var wire    1  aaaad  ram_we       $end
$var wire    1  aaaae  rom_ce       $end
$var wire    1  aaaaf  ram_ce       $end
$var wire   16  aaaag  gpio_output [15:0]  $end
$var wire    1  aaaah  gpio_ce       $end
$var wire    1  aaaai  timer_ce       $end
$var wire    1  aaaaj  timer_tick       $end
$var wire    1  aaaak  pwm_out       $end
$upscope $end
$scope module timer $end
$var wire   16  aaaap  reg_countval [15:0]  $end
$var wire   16  aaaaq  reg_status [15:0]  $end
$upscope $end
$upscope $end
$enddefinitions  $end

$comment
All initial values are dumped below at time 0 sec = 0 timescale units.
$end

$dumpvars
0aaaaa
b0 aaaab
b0 aaaac
0aaaad
1aaaae
0aaaaf
b0 aaaag
0aaaah
0aaaai
0aaaaj
0aaaak
b0 aaaal
b0 aaaam
b0 aaaan
b0 aaaao
b0 aaaap
b0 aaaaq
$end

#10000000
1aaaaa
b1 aaaao

#15000000
0aaaaa
b1010010011001 aaaac

#20000000
1aaaaa
b1 aaaan

#25000000
0aaaaa

#30000000
1aaaaa
b10010011001 aaaab
b1010 aaaac
1aaaad
0aaaae
1aaaaf

#35000000
0aaaaa

#40000000
1aaaaa
b1 aaaab
0aaaad
1aaaae
0aaaaf
b10 aaaao

#45000000
0aaaaa
b1010010011000 aaaac

#50000000
1aaaaa

#55000000
0aaaaa

#60000000
1aaaaa
b10010011000 aaaab
b10 aaaac
1aaaad
0aaaae
1aaaaf

#65000000
0aaaaa

#70000000
1aaaaa
b10 aaaab
0aaaad
1aaaae
0aaaaf
b11 aaaao

#75000000
0aaaaa
b1010010010111 aaaac

#80000000
1aaaaa

#85000000
0aaaaa

#90000000
1aaaaa
b10010010111 aaaab
b111 aaaac
1aaaad
0aaaae
1aaaaf

#95000000
0aaaaa

#100000000
1aaaaa
b11 aaaab
0aaaad
1aaaae
0aaaaf
b100 aaaao

#105000000
0aaaaa
b1010010010110 aaaac

#110000000
1aaaaa

#115000000
0aaaaa

#120000000
1aaaaa
b10010010110 aaaab
b1 aaaac
1aaaad
0aaaae
1aaaaf

#125000000
0aaaaa

#130000000
1aaaaa
b100 aaaab
0aaaad
1aaaae
0aaaaf
b101 aaaao

#135000000
0aaaaa
b11010010011001 aaaac

#140000000
1aaaaa
b10010011001 aaaab
0aaaae
1aaaaf
b11 aaaan

#145000000
0aaaaa
b1010 aaaac

#150000000
1aaaaa
b1010 aaaal

#155000000
0aaaaa

#160000000
1aaaaa
b101 aaaab
1aaaae
0aaaaf
b110 aaaao

#165000000
0aaaaa
b100111100010010 aaaac

#170000000
1aaaaa
b100 aaaan

#175000000
0aaaaa

#180000000
1aaaaa
b111100010010 aaaab
b1010 aaaac
1aaaad
0aaaae
1aaaai

#185000000
0aaaaa

#190000000
1aaaaa
b110 aaaab
0aaaad
1aaaae
0aaaai
b111 aaaao

#195000000
0aaaaa
b11010010010111 aaaac

#200000000
1aaaaa
b10010010111 aaaab
0aaaae
1aaaaf
b11 aaaan

#205000000
0aaaaa
b111 aaaac

#210000000
1aaaaa
b111 aaaal

#215000000
0aaaaa

#220000000
1aaaaa
b111 aaaab
1aaaae
0aaaaf
b1000 aaaao

#225000000
0aaaaa
b100111100100001 aaaac

#230000000
1aaaaa
b100 aaaan

#235000000
0aaaaa

#240000000
1aaaaa
b111100100001 aaaab
b111 aaaac
1aaaad
0aaaae

#245000000
0aaaaa

#250000000
1aaaaa
b1000 aaaab
0aaaad
1aaaae
b1001 aaaao

#255000000
0aaaaa
b11010010010110 aaaac

#260000000
1aaaaa
b10010010110 aaaab
0aaaae
1aaaaf
b11 aaaan

#265000000
0aaaaa
b1 aaaac

#270000000
1aaaaa
b1 aaaal

#275000000
0aaaaa

#280000000
1aaaaa
b1001 aaaab
1aaaae
0aaaaf
b1010 aaaao

#285000000
0aaaaa
b100111100100000 aaaac

#290000000
1aaaaa
b100 aaaan

#295000000
0aaaaa

#300000000
1aaaaa
b111100100000 aaaab
b1 aaaac
1aaaad
0aaaae

#305000000
0aaaaa
1aaaak

#310000000
1aaaaa
b1010 aaaab
0aaaad
1aaaae
b1011 aaaao

#315000000
0aaaaa
b11010010011000 aaaac

#320000000
1aaaaa
b10010011000 aaaab
0aaaae
1aaaaf
b11 aaaan

#325000000
0aaaaa
b10 aaaac

#330000000
1aaaaa
b10 aaaal

#335000000
0aaaaa

#340000000
1aaaaa
b1011 aaaab
1aaaae
0aaaaf
b1100 aaaao

#345000000
0aaaaa
b100111100010000 aaaac

#350000000
1aaaaa
b100 aaaan

#355000000
0aaaaa

#360000000
1aaaaa
b111100010000 aaaab
b10 aaaac
1aaaad
0aaaae
1aaaai

#365000000
0aaaaa
b1 aaaap
b10 aaaaq

#370000000
1aaaaa
b1100 aaaab
0aaaad
1aaaae
0aaaai
b1101 aaaao

#375000000
0aaaaa
b1001000000001100 aaaac
b10 aaaap

#380000000
1aaaaa
b1001 aaaan

#385000000
0aaaaa
b11 aaaap

#390000000
1aaaaa
b1100 aaaao

#395000000
0aaaaa
b100 aaaap

#400000000
1aaaaa
b1101 aaaao

#405000000
0aaaaa
b101 aaaap

#410000000
1aaaaa

#415000000
0aaaaa
b110 aaaap

#420000000
1aaaaa
b1100 aaaao

#425000000
0aaaaa
b111 aaaap

#430000000
1aaaaa
b1101 aaaao

#435000000
0aaaaa
0aaaak
b1000 aaaap

#440000000
1aaaaa

#445000000
0aaaaa
b1001 aaaap

#450000000
1aaaaa
b1100 aaaao

#455000000
0aaaaa
1aaaaj
b0 aaaap

#460000000
1aaaaa
b1101 aaaao

#465000000
0aaaaa
0aaaaj
1aaaak
b1 aaaap

#470000000
1aaaaa

#475000000
0aaaaa
b10 aaaap

#480000000
1aaaaa
b1100 aaaao

#485000000
0aaaaa
b11 aaaap

#490000000
1aaaaa
b1101 aaaao

#495000000
0aaaaa
b100 aaaap

#500000000
1aaaaa

#505000000
0aaaaa
b101 aaaap

#510000000
1aaaaa
b1100 aaaao

#515000000
0aaaaa
b110 aaaap

#520000000
1aaaaa
b1101 aaaao

#525000000
0aaaaa
b111 aaaap

#530000000
1aaaaa

#535000000
0aaaaa
0aaaak
b1000 aaaap

#540000000
1aaaaa
b1100 aaaao

#545000000
0aaaaa
b1001 aaaap

#550000000
1aaaaa
b1101 aaaao

#555000000
0aaaaa
1aaaaj
b0 aaaap

#560000000
1aaaaa

#565000000
0aaaaa
0aaaaj
1aaaak
b1 aaaap

#570000000
1aaaaa
b1100 aaaao

#575000000
0aaaaa
b10 aaaap

#580000000
1aaaaa
b1101 aaaao

#585000000
0aaaaa
b11 aaaap

#590000000
1aaaaa

#595000000
0aaaaa
b100 aaaap

#600000000
1aaaaa
b1100 aaaao

#605000000
0aaaaa
b101 aaaap

#610000000
1aaaaa
b1101 aaaao

#615000000
0aaaaa
b110 aaaap

#620000000
1aaaaa

#625000000
0aaaaa
b111 aaaap

#630000000
1aaaaa
b1100 aaaao

#635000000
0aaaaa
0aaaak
b1000 aaaap

#640000000
1aaaaa
b1101 aaaao

#645000000
0aaaaa
b1001 aaaap

#650000000
1aaaaa

#655000000
0aaaaa
1aaaaj
b0 aaaap

#660000000
1aaaaa
b1100 aaaao

#665000000
0aaaaa
0aaaaj
1aaaak
b1 aaaap

#670000000
1aaaaa
b1101 aaaao

#675000000
0aaaaa
b10 aaaap

#680000000
1aaaaa

#685000000
0aaaaa
b11 aaaap

#690000000
1aaaaa
b1100 aaaao

#695000000
0aaaaa
b100 aaaap

#700000000
1aaaaa
b1101 aaaao

#705000000
0aaaaa
b101 aaaap

#710000000
1aaaaa

#715000000
0aaaaa
b110 aaaap

#720000000
1aaaaa
b1100 aaaao

#725000000
0aaaaa
b111 aaaap

#730000000
1aaaaa
b1101 aaaao

#735000000
0aaaaa
0aaaak
b1000 aaaap

#740000000
1aaaaa

#745000000
0aaaaa
b1001 aaaap

#750000000
1aaaaa
b1100 aaaao

#755000000
0aaaaa
1aaaaj
b0 aaaap

#760000000
1aaaaa
b1101 aaaao

#765000000
0aaaaa
0aaaaj
1aaaak
b1 aaaap

#770000000
1aaaaa

#775000000
0aaaaa
b10 aaaap

#780000000
1aaaaa
b1100 aaaao

#785000000
0aaaaa
b11 aaaap

#790000000
1aaaaa
b1101 aaaao

#795000000
0aaaaa
b100 aaaap

#800000000
1aaaaa

#805000000
0aaaaa
b101 aaaap

#810000000
1aaaaa
b1100 aaaao

#815000000
0aaaaa
b110 aaaap

#820000000
1aaaaa
b1101 aaaao

#825000000
0aaaaa
b111 aaaap

#830000000
1aaaaa

#835000000
0aaaaa
0aaaak
b1000 aaaap

#840000000
1aaaaa
b1100 aaaao

#845000000
0aaaaa
b1001 aaaap

#850000000
1aaaaa
b1101 aaaao

#855000000
0aaaaa
1aaaaj
b0 aaaap

#860000000
1aaaaa

#865000000
0aaaaa
0aaaaj
1aaaak
b1 aaaap

#870000000
1aaaaa
b1100 aaaao

#875000000
0aaaaa
b10 aaaap

#880000000
1aaaaa
b1101 aaaao

#885000000
0aaaaa
b11 aaaap

#890000000
1aaaaa

#895000000
0aaaaa
b100 aaaap

#900000000
1aaaaa
b1100 aaaao

#905000000
0aaaaa
b101 aaaap

#910000000
1aaaaa
b1101 aaaao

#915000000
0aaaaa
b110 aaaap

#920000000
1aaaaa

#925000000
0aaaaa
b111 aaaap

#930000000
1aaaaa
b1100 aaaao

#935000000
0aaaaa
0aaaak
b1000 aaaap

#940000000
1aaaaa
b1101 aaaao

#945000000
0aaaaa
b1001 aaaap

#950000000
1aaaaa

#955000000
0aaaaa
1aaaaj
b0 aaaap

#960000000
1aaaaa
b1100 aaaao

#965000000
0aaaaa
0aaaaj
1aaaak
b1 aaaap

#970000000
1aaaaa
b1101 aaaao

#975000000
0aaaaa
b10 aaaap

#980000000
1aaaaa

#985000000
0aaaaa
b11 aaaap

#990000000
1aaaaa
b1100 aaaao

#995000000
0aaaaa
b100 aaaap

