SimpletronVP/sim_out.vcd
$date
     Aug 22, 2023       07:53:19
$end

$version
 SystemC 2.3.4-Accellera --- Aug  1 2023 07:55:54
$end

$timescale
     1 ps
$end

$scope module SystemC $end
$scope module simpletron $end
$var wire   16  aaaap  accumulator [15:0]  $end
$var wire   32  aaaaq  state [31:0]  $end
$var wire   16  aaaar  opcode [15:0]  $end
$var wire   16  aaaas  instruction_pointer [15:0]  $end
$upscope $end
$scope module spi $end
$var wire    1  aaaav  prescalar_ce       $end
$var wire    1  aaaaw  shifter_ce       $end
$scope module prescalar $end
$var wire    1  aaabe  sclk       $end
$var wire   16  aaabf  prescalar [15:0]  $end
$upscope $end
$scope module shifter $end
$var wire   16  aaaax  shift_reg [15:0]  $end
$var wire   16  aaaay  shift_counter [15:0]  $end
$var wire    1  aaaaz  mosi       $end
$var wire    1  aaaba  miso       $end
$var wire   16  aaabb  wshift [15:0]  $end
$var wire    1  aaabc  sclk       $end
$var wire    1  aaabd  busy       $end
$upscope $end
$upscope $end
$scope module sys $end
$var wire    1  aaaaa  clock       $end
$var wire   16  aaaab  address [15:0]  $end
$var wire   16  aaaac  data [15:0]  $end
$var wire    1  aaaad  ram_we       $end
$var wire    1  aaaae  rom_ce       $end
$var wire    1  aaaaf  ram_ce       $end
$var wire   16  aaaag  gpio_output [15:0]  $end
$var wire    1  aaaah  gpio_ce       $end
$var wire    1  aaaai  timer_ce       $end
$var wire    1  aaaaj  timer_tick       $end
$var wire    1  aaaak  pwm_out       $end
$var wire    1  aaaal  miso       $end
$var wire    1  aaaam  mosi       $end
$var wire    1  aaaan  ss       $end
$var wire    1  aaaao  sclk       $end
$upscope $end
$scope module timer $end
$var wire   16  aaaat  reg_countval [15:0]  $end
$var wire   16  aaaau  reg_status [15:0]  $end
$upscope $end
$upscope $end
$enddefinitions  $end

$comment
All initial values are dumped below at time 0 sec = 0 timescale units.
$end

$dumpvars
0aaaaa
b0 aaaab
b0 aaaac
0aaaad
1aaaae
0aaaaf
b0 aaaag
0aaaah
0aaaai
0aaaaj
0aaaak
0aaaal
0aaaam
0aaaan
0aaaao
b0 aaaap
b0 aaaaq
b0 aaaar
b0 aaaas
b0 aaaat
b0 aaaau
0aaaav
0aaaaw
b0 aaaax
b0 aaaay
0aaaaz
0aaaba
b0 aaabb
0aaabc
0aaabd
0aaabe
b0 aaabf
$end

#10000000
1aaaaa
b1 aaaas

#15000000
0aaaaa
b1010010011001 aaaac

#20000000
1aaaaa
b1 aaaar

#25000000
0aaaaa

#30000000
1aaaaa
b10010011001 aaaab
b1100100 aaaac
1aaaad
0aaaae
1aaaaf

#35000000
0aaaaa

#40000000
1aaaaa
b1 aaaab
0aaaad
1aaaae
0aaaaf
b10 aaaas

#45000000
0aaaaa
b1010010011000 aaaac

#50000000
1aaaaa

#55000000
0aaaaa

#60000000
1aaaaa
b10010011000 aaaab
b100 aaaac
1aaaad
0aaaae
1aaaaf

#65000000
0aaaaa

#70000000
1aaaaa
b10 aaaab
0aaaad
1aaaae
0aaaaf
b11 aaaas

#75000000
0aaaaa
b1010010010111 aaaac

#80000000
1aaaaa

#85000000
0aaaaa

#90000000
1aaaaa
b10010010111 aaaab
b1 aaaac
1aaaad
0aaaae
1aaaaf

#95000000
0aaaaa

#100000000
1aaaaa
b11 aaaab
0aaaad
1aaaae
0aaaaf
b100 aaaas

#105000000
0aaaaa
b11010010011001 aaaac

#110000000
1aaaaa
b10010011001 aaaab
0aaaae
1aaaaf
b11 aaaar

#115000000
0aaaaa
b1100100 aaaac

#120000000
1aaaaa
b1100100 aaaap

#125000000
0aaaaa

#130000000
1aaaaa
b100 aaaab
1aaaae
0aaaaf
b101 aaaas

#135000000
0aaaaa
b100111100110011 aaaac

#140000000
1aaaaa
b100 aaaar

#145000000
0aaaaa

#150000000
1aaaaa
b111100110011 aaaab
b1100100 aaaac
1aaaad
0aaaae

#155000000
0aaaaa

#160000000
1aaaaa
b101 aaaab
0aaaad
1aaaae
b110 aaaas

#165000000
0aaaaa
b11010010011000 aaaac

#170000000
1aaaaa
b10010011000 aaaab
0aaaae
1aaaaf
b11 aaaar

#175000000
0aaaaa
b100 aaaac

#180000000
1aaaaa
b100 aaaap

#185000000
0aaaaa

#190000000
1aaaaa
b110 aaaab
1aaaae
0aaaaf
b111 aaaas

#195000000
0aaaaa
b100111100110001 aaaac

#200000000
1aaaaa
b100 aaaar

#205000000
0aaaaa

#210000000
1aaaaa
b111100110001 aaaab
b100 aaaac
1aaaad
0aaaae

#215000000
0aaaaa

#220000000
1aaaaa
b111 aaaab
0aaaad
1aaaae
b1000 aaaas

#225000000
0aaaaa
b11010010010111 aaaac

#230000000
1aaaaa
b10010010111 aaaab
0aaaae
1aaaaf
b11 aaaar

#235000000
0aaaaa
b1 aaaac

#240000000
1aaaaa
b1 aaaap

#245000000
0aaaaa

#250000000
1aaaaa
b1000 aaaab
1aaaae
0aaaaf
b1001 aaaas

#255000000
0aaaaa
b100111100110010 aaaac

#260000000
1aaaaa
b100 aaaar

#265000000
0aaaaa

#270000000
1aaaaa
b111100110010 aaaab
b1 aaaac
1aaaad
0aaaae

#275000000
0aaaaa

#280000000
1aaaaa
b1001 aaaab
0aaaad
1aaaae
b1010 aaaas

#285000000
0aaaaa
b1001000000001001 aaaac

#290000000
1aaaaa
b1001 aaaar

#295000000
0aaaaa
1aaaav
1aaaaw
b1100100 aaaax
b1100100 aaabb
1aaabd
b100 aaabf

#300000000
1aaaaa
b1001 aaaas

#305000000
0aaaaa

#310000000
1aaaaa
b1010 aaaas

#315000000
0aaaaa

#320000000
1aaaaa

#325000000
0aaaaa

#330000000
1aaaaa
b1001 aaaas

#335000000
0aaaaa
b110010 aaaax
b1 aaaay
1aaabc
1aaabe

#340000000
1aaaaa
b1010 aaaas

#345000000
0aaaaa

#350000000
1aaaaa

#355000000
0aaaaa

#360000000
1aaaaa
b1001 aaaas

#365000000
0aaaaa

#370000000
1aaaaa
b1010 aaaas

#375000000
0aaaaa
0aaabc
0aaabe

#380000000
1aaaaa

#385000000
0aaaaa

#390000000
1aaaaa
b1001 aaaas

#395000000
0aaaaa

#400000000
1aaaaa
b1010 aaaas

#405000000
0aaaaa

#410000000
1aaaaa

#415000000
0aaaaa
b11001 aaaax
b10 aaaay
1aaabc
1aaabe

#420000000
1aaaaa
b1001 aaaas

#425000000
0aaaaa

#430000000
1aaaaa
b1010 aaaas

#435000000
0aaaaa

#440000000
1aaaaa

#445000000
0aaaaa

#450000000
1aaaaa
b1001 aaaas

#455000000
0aaaaa
0aaabc
0aaabe

#460000000
1aaaaa
b1010 aaaas

#465000000
0aaaaa

#470000000
1aaaaa

#475000000
0aaaaa

#480000000
1aaaaa
b1001 aaaas

#485000000
0aaaaa

#490000000
1aaaaa
b1010 aaaas

#495000000
0aaaaa
1aaaam
b1100 aaaax
b11 aaaay
1aaaaz
1aaabc
1aaabe

#500000000
1aaaaa

#505000000
0aaaaa

#510000000
1aaaaa
b1001 aaaas

#515000000
0aaaaa

#520000000
1aaaaa
b1010 aaaas

#525000000
0aaaaa

#530000000
1aaaaa

#535000000
0aaaaa
0aaabc
0aaabe

#540000000
1aaaaa
b1001 aaaas

#545000000
0aaaaa

#550000000
1aaaaa
b1010 aaaas

#555000000
0aaaaa

#560000000
1aaaaa

#565000000
0aaaaa

#570000000
1aaaaa
b1001 aaaas

#575000000
0aaaaa
0aaaam
b110 aaaax
b100 aaaay
0aaaaz
1aaabc
1aaabe

#580000000
1aaaaa
b1010 aaaas

#585000000
0aaaaa

#590000000
1aaaaa

#595000000
0aaaaa

#600000000
1aaaaa
b1001 aaaas

#605000000
0aaaaa

#610000000
1aaaaa
b1010 aaaas

#615000000
0aaaaa
0aaabc
0aaabe

#620000000
1aaaaa

#625000000
0aaaaa

#630000000
1aaaaa
b1001 aaaas

#635000000
0aaaaa

#640000000
1aaaaa
b1010 aaaas

#645000000
0aaaaa

#650000000
1aaaaa

#655000000
0aaaaa
b11 aaaax
b101 aaaay
1aaabc
1aaabe

#660000000
1aaaaa
b1001 aaaas

#665000000
0aaaaa

#670000000
1aaaaa
b1010 aaaas

#675000000
0aaaaa

#680000000
1aaaaa

#685000000
0aaaaa

#690000000
1aaaaa
b1001 aaaas

#695000000
0aaaaa
0aaabc
0aaabe

#700000000
1aaaaa
b1010 aaaas

#705000000
0aaaaa

#710000000
1aaaaa

#715000000
0aaaaa

#720000000
1aaaaa
b1001 aaaas

#725000000
0aaaaa

#730000000
1aaaaa
b1010 aaaas

#735000000
0aaaaa
1aaaam
b1 aaaax
b110 aaaay
1aaaaz
1aaabc
1aaabe

#740000000
1aaaaa

#745000000
0aaaaa

#750000000
1aaaaa
b1001 aaaas

#755000000
0aaaaa

#760000000
1aaaaa
b1010 aaaas

#765000000
0aaaaa

#770000000
1aaaaa

#775000000
0aaaaa
0aaabc
0aaabe

#780000000
1aaaaa
b1001 aaaas

#785000000
0aaaaa

#790000000
1aaaaa
b1010 aaaas

#795000000
0aaaaa

#800000000
1aaaaa

#805000000
0aaaaa

#810000000
1aaaaa
b1001 aaaas

#815000000
0aaaaa
b0 aaaax
b111 aaaay
1aaabc
1aaabe

#820000000
1aaaaa
b1010 aaaas

#825000000
0aaaaa

#830000000
1aaaaa

#835000000
0aaaaa

#840000000
1aaaaa
b1001 aaaas

#845000000
0aaaaa

#850000000
1aaaaa
b1010 aaaas

#855000000
0aaaaa
0aaabc
0aaabe

#860000000
1aaaaa

#865000000
0aaaaa

#870000000
1aaaaa
b1001 aaaas

#875000000
0aaaaa

#880000000
1aaaaa
b1010 aaaas

#885000000
0aaaaa

#890000000
1aaaaa

#895000000
0aaaaa
0aaaam
b1000 aaaay
0aaaaz
1aaabc
1aaabe

#900000000
1aaaaa
b1001 aaaas

#905000000
0aaaaa

#910000000
1aaaaa
b1010 aaaas

#915000000
0aaaaa

#920000000
1aaaaa

#925000000
0aaaaa

#930000000
1aaaaa
b1001 aaaas

#935000000
0aaaaa
0aaabc
0aaabe

#940000000
1aaaaa
b1010 aaaas

#945000000
0aaaaa

#950000000
1aaaaa

#955000000
0aaaaa

#960000000
1aaaaa
b1001 aaaas

#965000000
0aaaaa

#970000000
1aaaaa
b1010 aaaas

#975000000
0aaaaa
b1001 aaaay
1aaabc
1aaabe

#980000000
1aaaaa

#985000000
0aaaaa

#990000000
1aaaaa
b1001 aaaas

#995000000
0aaaaa

#1000000000
1aaaaa
b1010 aaaas

#1005000000
0aaaaa

#1010000000
1aaaaa

#1015000000
0aaaaa
0aaabc
0aaabe

#1020000000
1aaaaa
b1001 aaaas

#1025000000
0aaaaa

#1030000000
1aaaaa
b1010 aaaas

#1035000000
0aaaaa

#1040000000
1aaaaa

#1045000000
0aaaaa

#1050000000
1aaaaa
b1001 aaaas

#1055000000
0aaaaa
b1010 aaaay
1aaabc
1aaabe

#1060000000
1aaaaa
b1010 aaaas

#1065000000
0aaaaa

#1070000000
1aaaaa

#1075000000
0aaaaa

#1080000000
1aaaaa
b1001 aaaas

#1085000000
0aaaaa

#1090000000
1aaaaa
b1010 aaaas

#1095000000
0aaaaa
0aaabc
0aaabe

#1100000000
1aaaaa

#1105000000
0aaaaa

#1110000000
1aaaaa
b1001 aaaas

#1115000000
0aaaaa

#1120000000
1aaaaa
b1010 aaaas

#1125000000
0aaaaa

#1130000000
1aaaaa

#1135000000
0aaaaa
b1011 aaaay
1aaabc
1aaabe

#1140000000
1aaaaa
b1001 aaaas

#1145000000
0aaaaa

#1150000000
1aaaaa
b1010 aaaas

#1155000000
0aaaaa

#1160000000
1aaaaa

#1165000000
0aaaaa

#1170000000
1aaaaa
b1001 aaaas

#1175000000
0aaaaa
0aaabc
0aaabe

#1180000000
1aaaaa
b1010 aaaas

#1185000000
0aaaaa

#1190000000
1aaaaa

#1195000000
0aaaaa

#1200000000
1aaaaa
b1001 aaaas

#1205000000
0aaaaa

#1210000000
1aaaaa
b1010 aaaas

#1215000000
0aaaaa
b1100 aaaay
1aaabc
1aaabe

#1220000000
1aaaaa

#1225000000
0aaaaa

#1230000000
1aaaaa
b1001 aaaas

#1235000000
0aaaaa

#1240000000
1aaaaa
b1010 aaaas

#1245000000
0aaaaa

#1250000000
1aaaaa

#1255000000
0aaaaa
0aaabc
0aaabe

#1260000000
1aaaaa
b1001 aaaas

#1265000000
0aaaaa

#1270000000
1aaaaa
b1010 aaaas

#1275000000
0aaaaa

#1280000000
1aaaaa

#1285000000
0aaaaa

#1290000000
1aaaaa
b1001 aaaas

#1295000000
0aaaaa
b1101 aaaay
1aaabc
1aaabe

#1300000000
1aaaaa
b1010 aaaas

#1305000000
0aaaaa

#1310000000
1aaaaa

#1315000000
0aaaaa

#1320000000
1aaaaa
b1001 aaaas

#1325000000
0aaaaa

#1330000000
1aaaaa
b1010 aaaas

#1335000000
0aaaaa
0aaabc
0aaabe

#1340000000
1aaaaa

#1345000000
0aaaaa

#1350000000
1aaaaa
b1001 aaaas

#1355000000
0aaaaa

#1360000000
1aaaaa
b1010 aaaas

#1365000000
0aaaaa

#1370000000
1aaaaa

#1375000000
0aaaaa
b1110 aaaay
1aaabc
1aaabe

#1380000000
1aaaaa
b1001 aaaas

#1385000000
0aaaaa

#1390000000
1aaaaa
b1010 aaaas

#1395000000
0aaaaa

#1400000000
1aaaaa

#1405000000
0aaaaa

#1410000000
1aaaaa
b1001 aaaas

#1415000000
0aaaaa
0aaabc
0aaabe

#1420000000
1aaaaa
b1010 aaaas

#1425000000
0aaaaa

#1430000000
1aaaaa

#1435000000
0aaaaa

#1440000000
1aaaaa
b1001 aaaas

#1445000000
0aaaaa

#1450000000
1aaaaa
b1010 aaaas

#1455000000
0aaaaa
b1111 aaaay
1aaabc
1aaabe

#1460000000
1aaaaa

#1465000000
0aaaaa

#1470000000
1aaaaa
b1001 aaaas

#1475000000
0aaaaa

#1480000000
1aaaaa
b1010 aaaas

#1485000000
0aaaaa

#1490000000
1aaaaa

#1495000000
0aaaaa
0aaabc
0aaabe

#1500000000
1aaaaa
b1001 aaaas

#1505000000
0aaaaa

#1510000000
1aaaaa
b1010 aaaas

#1515000000
0aaaaa

#1520000000
1aaaaa

#1525000000
0aaaaa

#1530000000
1aaaaa
b1001 aaaas

#1535000000
0aaaaa
b10000 aaaay
1aaabc
1aaabe

#1540000000
1aaaaa
b1010 aaaas

#1545000000
0aaaaa

#1550000000
1aaaaa

#1555000000
0aaaaa

#1560000000
1aaaaa
b1001 aaaas

#1565000000
0aaaaa

#1570000000
1aaaaa
b1010 aaaas

#1575000000
0aaaaa
0aaabc
0aaabe

#1580000000
1aaaaa

#1585000000
0aaaaa

#1590000000
1aaaaa
b1001 aaaas

#1595000000
0aaaaa

#1600000000
1aaaaa
b1010 aaaas

#1605000000
0aaaaa

#1610000000
1aaaaa

#1615000000
0aaaaa
b0 aaaay
1aaabc
0aaabd
1aaabe

#1620000000
1aaaaa
b1001 aaaas

#1625000000
0aaaaa
0aaaav
0aaaaw

#1630000000
1aaaaa
b1010 aaaas

#1635000000
0aaaaa

#1640000000
1aaaaa

#1645000000
0aaaaa

#1650000000
1aaaaa
b1001 aaaas

#1655000000
0aaaaa

#1660000000
1aaaaa
b1010 aaaas

#1665000000
0aaaaa

#1670000000
1aaaaa

#1675000000
0aaaaa

#1680000000
1aaaaa
b1001 aaaas

#1685000000
0aaaaa

#1690000000
1aaaaa
b1010 aaaas

#1695000000
0aaaaa

#1700000000
1aaaaa

#1705000000
0aaaaa

#1710000000
1aaaaa
b1001 aaaas

#1715000000
0aaaaa

#1720000000
1aaaaa
b1010 aaaas

#1725000000
0aaaaa

#1730000000
1aaaaa

#1735000000
0aaaaa

#1740000000
1aaaaa
b1001 aaaas

#1745000000
0aaaaa

#1750000000
1aaaaa
b1010 aaaas

#1755000000
0aaaaa

#1760000000
1aaaaa

#1765000000
0aaaaa

#1770000000
1aaaaa
b1001 aaaas

#1775000000
0aaaaa

#1780000000
1aaaaa
b1010 aaaas

#1785000000
0aaaaa

#1790000000
1aaaaa

#1795000000
0aaaaa

#1800000000
1aaaaa
b1001 aaaas

#1805000000
0aaaaa

#1810000000
1aaaaa
b1010 aaaas

#1815000000
0aaaaa

#1820000000
1aaaaa

#1825000000
0aaaaa

#1830000000
1aaaaa
b1001 aaaas

#1835000000
0aaaaa

#1840000000
1aaaaa
b1010 aaaas

#1845000000
0aaaaa

#1850000000
1aaaaa

#1855000000
0aaaaa

#1860000000
1aaaaa
b1001 aaaas

#1865000000
0aaaaa

#1870000000
1aaaaa
b1010 aaaas

#1875000000
0aaaaa

#1880000000
1aaaaa

#1885000000
0aaaaa

#1890000000
1aaaaa
b1001 aaaas

#1895000000
0aaaaa

#1900000000
1aaaaa
b1010 aaaas

#1905000000
0aaaaa

#1910000000
1aaaaa

#1915000000
0aaaaa

#1920000000
1aaaaa
b1001 aaaas

#1925000000
0aaaaa

#1930000000
1aaaaa
b1010 aaaas

#1935000000
0aaaaa

#1940000000
1aaaaa

#1945000000
0aaaaa

#1950000000
1aaaaa
b1001 aaaas

#1955000000
0aaaaa

#1960000000
1aaaaa
b1010 aaaas

#1965000000
0aaaaa

#1970000000
1aaaaa

#1975000000
0aaaaa

#1980000000
1aaaaa
b1001 aaaas

#1985000000
0aaaaa

#1990000000
1aaaaa
b1010 aaaas

